,movieId,idSP
0,1,0
1,1,1
2,2,2
3,3,3
4,3,4
5,4,5
6,6,2
7,6,3
8,6,6
9,6,5
10,6,4
11,8,0
12,9,2
13,13,2
14,14,5
15,16,7
16,16,4
17,16,8
18,17,2
19,19,2
20,19,9
21,31,5
22,39,7
23,44,3
24,44,7
25,44,4
26,47,7
27,48,0
28,54,0
29,69,2
30,71,7
31,79,7
32,79,8
33,95,5
34,100,7
35,100,4
36,100,8
37,104,2
38,105,3
39,105,7
40,105,4
41,107,0
42,110,5
43,111,1
44,113,5
45,118,7
46,118,4
47,118,8
48,123,6
49,140,5
50,145,1
51,150,2
52,150,7
53,150,4
54,150,8
55,152,4
56,153,3
57,153,7
58,153,4
59,158,2
60,161,5
61,163,2
62,165,5
63,168,2
64,169,7
65,179,5
66,181,5
67,191,5
68,193,6
69,196,4
70,207,5
71,212,5
72,215,7
73,215,4
74,215,8
75,216,2
76,224,8
77,225,7
78,230,7
79,230,4
80,230,8
81,231,2
82,235,5
83,239,0
84,250,0
85,253,3
86,253,7
87,253,4
88,260,0
89,261,2
90,273,2
91,275,1
92,277,0
93,278,5
94,288,4
95,289,7
96,289,4
97,289,8
98,292,7
99,292,4
100,292,1
101,292,8
102,293,2
103,296,7
104,300,5
105,306,6
106,307,6
107,308,6
108,314,3
109,314,4
110,315,7
111,315,4
112,317,0
113,318,2
114,318,7
115,318,4
116,339,0
117,343,7
118,343,4
119,343,8
120,355,2
121,355,3
122,355,4
123,356,3
124,356,9
125,356,7
126,356,4
127,364,0
128,366,7
129,367,2
130,367,7
131,368,7
132,368,4
133,372,8
134,374,7
135,374,4
136,374,8
137,377,5
138,379,3
139,379,4
140,380,4
141,381,5
142,393,10
143,410,2
144,410,3
145,410,4
146,412,2
147,420,7
148,421,8
149,437,8
150,440,3
151,440,4
152,442,7
153,442,8
154,450,7
155,450,4
156,450,8
157,454,2
158,455,7
159,455,4
160,455,8
161,457,7
162,457,4
163,458,2
164,464,2
165,466,5
166,469,7
167,469,4
168,469,1
169,469,8
170,475,8
171,477,5
172,480,2
173,480,3
174,480,7
175,480,4
176,480,8
177,486,0
178,488,7
179,488,8
180,494,3
181,494,4
182,495,6
183,500,0
184,507,7
185,507,4
186,507,8
187,508,1
188,524,7
189,524,4
190,527,2
191,527,7
192,527,8
193,539,1
194,544,7
195,544,4
196,544,1
197,544,8
198,551,0
199,552,0
200,553,5
201,567,3
202,567,4
203,575,2
204,586,0
205,587,2
206,588,0
207,589,2
208,589,3
209,589,4
210,592,3
211,592,7
212,592,4
213,594,0
214,595,0
215,596,0
216,597,5
217,599,7
218,599,4
219,599,8
220,599,11
221,609,0
222,610,4
223,616,0
224,616,1
225,617,3
226,617,4
227,628,4
228,647,5
229,648,2
230,648,9
231,648,1
232,653,4
233,661,0
234,668,12
235,673,7
236,688,0
237,691,8
238,694,3
239,709,0
240,724,9
241,724,1
242,733,5
243,741,2
244,741,3
245,741,4
246,743,5
247,748,3
248,748,4
249,757,6
250,761,4
251,762,3
252,762,4
253,765,0
254,778,3
255,778,4
256,778,1
257,783,0
258,786,3
259,786,7
260,786,4
261,798,2
262,802,5
263,805,3
264,805,4
265,823,6
266,832,2
267,832,3
268,836,5
269,837,2
270,852,7
271,852,4
272,852,8
273,858,9
274,881,0
275,881,4
276,892,13
277,899,7
278,900,7
279,903,7
280,903,4
281,903,8
282,904,7
283,905,7
284,905,4
285,905,8
286,908,7
287,911,11
288,912,7
289,913,7
290,917,11
291,919,7
292,920,7
293,923,7
294,924,7
295,924,4
296,924,8
297,932,5
298,933,4
299,942,5
300,947,11
301,949,7
302,951,11
303,955,7
304,956,1
305,956,11
306,959,11
307,961,11
308,963,11
309,968,6
310,968,11
311,970,11
312,973,11
313,976,1
314,976,11
315,987,8
316,990,2
317,996,7
318,996,4
319,996,1
320,996,8
321,1003,7
322,1003,4
323,1003,8
324,1004,4
325,1005,0
326,1007,0
327,1008,0
328,1009,0
329,1010,0
330,1011,0
331,1012,0
332,1013,0
333,1014,0
334,1015,0
335,1017,0
336,1018,0
337,1019,0
338,1019,11
339,1020,0
340,1022,0
341,1024,0
342,1025,0
343,1028,0
344,1029,0
345,1030,0
346,1031,0
347,1032,0
348,1033,0
349,1034,3
350,1034,4
351,1035,0
352,1036,5
353,1043,8
354,1054,7
355,1054,4
356,1054,8
357,1059,5
358,1064,0
359,1073,7
360,1080,2
361,1081,7
362,1081,4
363,1081,8
364,1084,7
365,1086,7
366,1088,2
367,1088,3
368,1088,4
369,1089,7
370,1089,4
371,1090,4
372,1097,3
373,1097,9
374,1097,4
375,1097,8
376,1101,2
377,1117,4
378,1120,7
379,1120,4
380,1120,8
381,1121,10
382,1136,2
383,1172,4
384,1172,8
385,1176,6
386,1178,4
387,1190,6
388,1190,4
389,1196,0
390,1197,2
391,1199,6
392,1200,5
393,1201,4
394,1206,7
395,1207,7
396,1207,4
397,1207,8
398,1210,0
399,1213,3
400,1213,4
401,1214,5
402,1219,7
403,1219,8
404,1221,9
405,1224,1
406,1224,13
407,1227,3
408,1227,4
409,1233,1
410,1240,4
411,1242,7
412,1242,4
413,1242,8
414,1245,5
415,1246,5
416,1248,7
417,1248,4
418,1248,8
419,1254,7
420,1258,7
421,1259,9
422,1259,1
423,1260,11
424,1262,4
425,1266,7
426,1266,4
427,1266,8
428,1270,2
429,1270,3
430,1270,5
431,1270,4
432,1270,1
433,1272,5
434,1274,2
435,1276,7
436,1281,6
437,1282,0
438,1283,4
439,1287,7
440,1293,1
441,1296,1
442,1300,3
443,1300,4
444,1304,5
445,1305,3
446,1305,4
447,1320,5
448,1333,7
449,1333,4
450,1333,8
451,1339,2
452,1344,7
453,1344,4
454,1344,8
455,1348,11
456,1353,2
457,1359,0
458,1361,4
459,1363,5
460,1366,5
461,1366,4
462,1367,0
463,1370,5
464,1377,3
465,1377,7
466,1377,4
467,1380,3
468,1380,4
469,1382,5
470,1387,2
471,1387,3
472,1387,9
473,1387,4
474,1391,7
475,1393,7
476,1393,4
477,1393,8
478,1394,5
479,1408,9
480,1408,1
481,1409,7
482,1409,4
483,1411,7
484,1411,4
485,1411,8
486,1431,2
487,1432,5
488,1438,2
489,1459,7
490,1459,4
491,1459,1
492,1459,8
493,1460,0
494,1461,7
495,1464,6
496,1485,2
497,1485,9
498,1487,7
499,1495,5
500,1497,7
501,1497,1
502,1497,8
503,1498,5
504,1499,2
505,1513,5
506,1515,5
507,1541,7
508,1544,2
509,1544,3
510,1544,5
511,1544,4
512,1552,5
513,1556,5
514,1562,7
515,1566,0
516,1569,8
517,1573,5
518,1580,9
519,1580,1
520,1581,5
521,1584,3
522,1584,7
523,1584,4
524,1586,5
525,1586,4
526,1587,5
527,1588,0
528,1591,3
529,1591,7
530,1591,4
531,1592,2
532,1597,7
533,1608,5
534,1610,7
535,1617,3
536,1617,6
537,1617,4
538,1619,2
539,1619,9
540,1619,1
541,1625,7
542,1625,4
543,1625,8
544,1626,7
545,1626,4
546,1626,1
547,1626,8
548,1627,7
549,1627,4
550,1627,8
551,1641,5
552,1644,7
553,1644,4
554,1644,8
555,1645,3
556,1645,4
557,1654,1
558,1658,4
559,1660,3
560,1665,3
561,1665,4
562,1673,7
563,1676,5
564,1680,1
565,1681,7
566,1681,4
567,1681,1
568,1681,8
569,1682,9
570,1682,7
571,1684,3
572,1684,4
573,1688,0
574,1690,5
575,1702,0
576,1707,0
577,1711,7
578,1711,4
579,1711,8
580,1721,5
581,1721,4
582,1726,7
583,1726,4
584,1726,1
585,1726,8
586,1731,0
587,1732,3
588,1732,7
589,1732,4
590,1732,8
591,1733,1
592,1747,7
593,1747,4
594,1747,8
595,1757,6
596,1769,1
597,1769,8
598,1777,3
599,1777,4
600,1777,8
601,1779,7
602,1779,8
603,1784,9
604,1784,1
605,1792,4
606,1804,5
607,1821,5
608,1831,3
609,1831,7
610,1831,4
611,1833,2
612,1840,5
613,1844,3
614,1844,4
615,1859,6
616,1866,2
617,1882,7
618,1882,4
619,1884,2
620,1885,2
621,1892,7
622,1892,4
623,1892,8
624,1894,5
625,1907,0
626,1909,5
627,1911,0
628,1912,4
629,1917,5
630,1918,7
631,1918,4
632,1918,8
633,1919,7
634,1919,4
635,1919,8
636,1920,2
637,1923,5
638,1923,4
639,1924,6
640,1934,7
641,1934,4
642,1934,8
643,1940,5
644,1947,13
645,1951,7
646,1951,4
647,1951,8
648,1953,5
649,1954,2
650,1957,5
651,1962,3
652,1962,4
653,1966,6
654,1967,7
655,1967,4
656,1970,7
657,1971,7
658,1972,3
659,1972,4
660,1973,7
661,1973,4
662,1973,8
663,1982,2
664,1982,3
665,1982,4
666,1983,2
667,1983,3
668,1983,4
669,1984,3
670,1984,4
671,1985,2
672,1985,3
673,1985,4
674,1986,3
675,1986,4
676,1992,2
677,1993,2
678,1994,7
679,1994,4
680,1994,8
681,1997,8
682,1999,7
683,1999,4
684,2000,7
685,2000,4
686,2000,1
687,2000,8
688,2001,7
689,2001,4
690,2001,8
691,2002,7
692,2002,4
693,2002,8
694,2003,3
695,2003,7
696,2003,4
697,2004,7
698,2005,2
699,2005,3
700,2005,7
701,2005,4
702,2006,2
703,2010,11
704,2011,2
705,2011,3
706,2011,5
707,2011,4
708,2012,3
709,2012,4
710,2014,0
711,2015,0
712,2016,0
713,2017,0
714,2018,0
715,2020,4
716,2021,2
717,2021,3
718,2021,4
719,2023,9
720,2028,2
721,2028,9
722,2028,7
723,2028,1
724,2033,0
725,2034,0
726,2034,4
727,2035,0
728,2036,0
729,2037,0
730,2038,0
731,2040,0
732,2042,0
733,2043,0
734,2048,0
735,2050,0
736,2051,0
737,2052,0
738,2053,0
739,2054,0
740,2057,0
741,2058,3
742,2058,4
743,2059,0
744,2066,7
745,2067,7
746,2071,7
747,2071,4
748,2071,8
749,2077,0
750,2078,0
751,2080,0
752,2081,0
753,2082,0
754,2083,0
755,2084,0
756,2085,0
757,2087,0
758,2089,0
759,2090,0
760,2091,0
761,2092,0
762,2093,0
763,2094,0
764,2095,0
765,2096,0
766,2100,0
767,2102,0
768,2103,0
769,2105,0
770,2122,3
771,2122,4
772,2123,1
773,2124,2
774,2126,5
775,2133,0
776,2135,5
777,2140,1
778,2143,3
779,2143,4
780,2152,3
781,2152,4
782,2153,3
783,2153,4
784,2161,7
785,2162,7
786,2167,3
787,2167,7
788,2167,4
789,2174,3
790,2174,7
791,2174,4
792,2176,7
793,2176,4
794,2176,8
795,2178,7
796,2178,4
797,2178,8
798,2179,7
799,2179,4
800,2179,8
801,2180,7
802,2180,8
803,2181,7
804,2181,4
805,2181,8
806,2183,7
807,2183,4
808,2183,8
809,2184,7
810,2184,4
811,2184,8
812,2185,7
813,2186,7
814,2193,0
815,2194,7
816,2196,2
817,2207,1
818,2208,3
819,2208,4
820,2208,1
821,2208,11
822,2210,11
823,2227,11
824,2245,5
825,2257,8
826,2262,7
827,2262,4
828,2268,7
829,2268,4
830,2268,8
831,2269,2
832,2273,7
833,2273,4
834,2273,8
835,2279,2
836,2288,8
837,2289,3
838,2289,4
839,2291,0
840,2297,2
841,2302,5
842,2306,5
843,2314,5
844,2316,7
845,2321,7
846,2321,4
847,2321,8
848,2328,2
849,2334,5
850,2335,5
851,2338,8
852,2339,0
853,2340,2
854,2353,5
855,2355,0
856,2358,3
857,2359,3
858,2359,4
859,2366,7
860,2378,7
861,2378,4
862,2379,7
863,2379,4
864,2380,3
865,2380,4
866,2381,3
867,2381,4
868,2382,3
869,2382,4
870,2383,3
871,2383,4
872,2388,3
873,2388,4
874,2392,7
875,2392,4
876,2392,8
877,2395,5
878,2398,0
879,2404,2
880,2405,5
881,2409,2
882,2410,2
883,2411,2
884,2412,2
885,2418,7
886,2418,4
887,2418,8
888,2420,2
889,2420,9
890,2420,1
891,2421,2
892,2421,1
893,2422,2
894,2422,9
895,2422,1
896,2423,3
897,2423,7
898,2423,4
899,2424,3
900,2424,7
901,2424,4
902,2427,5
903,2429,0
904,2431,2
905,2432,2
906,2450,3
907,2450,4
908,2455,5
909,2459,3
910,2459,4
911,2463,5
912,2465,7
913,2465,4
914,2467,7
915,2467,4
916,2467,1
917,2467,8
918,2474,5
919,2482,8
920,2483,4
921,2490,7
922,2494,2
923,2495,6
924,2497,7
925,2497,4
926,2497,8
927,2498,0
928,2502,5
929,2505,1
930,2515,3
931,2515,4
932,2516,3
933,2524,7
934,2527,7
935,2527,4
936,2527,8
937,2529,5
938,2531,5
939,2533,5
940,2539,3
941,2539,7
942,2539,4
943,2540,4
944,2540,1
945,2540,8
946,2546,7
947,2546,4
948,2546,8
949,2555,2
950,2558,3
951,2558,4
952,2559,7
953,2559,4
954,2561,7
955,2561,4
956,2561,8
957,2566,0
958,2571,2
959,2571,7
960,2572,0
961,2580,7
962,2580,4
963,2580,8
964,2581,0
965,2587,2
966,2605,5
967,2605,4
968,2617,2
969,2628,0
970,2640,7
971,2642,7
972,2643,7
973,2648,11
974,2651,7
975,2651,4
976,2651,8
977,2657,5
978,2668,4
979,2671,2
980,2671,9
981,2671,4
982,2671,8
983,2672,7
984,2672,4
985,2672,8
986,2677,3
987,2677,4
988,2683,3
989,2683,7
990,2683,4
991,2687,0
992,2690,1
993,2692,1
994,2692,8
995,2694,7
996,2694,4
997,2694,8
998,2701,3
999,2701,7
1000,2701,4
1001,2706,2
1002,2706,3
1003,2706,4
1004,2710,3
1005,2710,4
1006,2712,7
1007,2712,4
1008,2712,8
1009,2716,1
1010,2717,1
1011,2720,0
1012,2722,7
1013,2722,4
1014,2722,8
1015,2728,7
1016,2728,4
1017,2728,8
1018,2729,7
1019,2730,7
1020,2731,6
1021,2732,6
1022,2738,13
1023,2739,7
1024,2739,4
1025,2745,1
1026,2746,7
1027,2747,11
1028,2761,7
1029,2762,5
1030,2771,5
1031,2771,4
1032,2789,5
1033,2791,3
1034,2791,4
1035,2794,7
1036,2795,7
1037,2800,3
1038,2800,4
1039,2803,3
1040,2803,7
1041,2803,4
1042,2804,7
1043,2804,4
1044,2804,8
1045,2826,5
1046,2858,9
1047,2858,7
1048,2871,7
1049,2876,0
1050,2876,8
1051,2877,3
1052,2877,4
1053,2879,3
1054,2879,4
1055,2880,3
1056,2880,4
1057,2882,4
1058,2886,1
1059,2887,7
1060,2887,4
1061,2887,1
1062,2887,8
1063,2889,5
1064,2890,7
1065,2890,4
1066,2892,4
1067,2899,3
1068,2899,4
1069,2899,11
1070,2906,7
1071,2906,4
1072,2908,5
1073,2908,1
1074,2915,7
1075,2915,4
1076,2915,8
1077,2916,2
1078,2919,7
1079,2922,4
1080,2924,8
1081,2925,3
1082,2925,4
1083,2928,7
1084,2928,4
1085,2928,8
1086,2929,4
1087,2931,7
1088,2931,8
1089,2942,4
1090,2943,3
1091,2943,4
1092,2944,7
1093,2950,7
1094,2950,4
1095,2950,8
1096,2953,0
1097,2959,2
1098,2959,3
1099,2959,5
1100,2959,4
1101,2976,5
1102,2987,0
1103,2997,8
1104,3000,2
1105,3005,9
1106,3005,1
1107,3006,4
1108,3020,8
1109,3022,11
1110,3028,13
1111,3034,0
1112,3051,5
1113,3061,13
1114,3066,5
1115,3067,3
1116,3067,6
1117,3067,4
1118,3068,5
1119,3083,6
1120,3089,3
1121,3089,4
1122,3091,5
1123,3098,7
1124,3098,4
1125,3098,8
1126,3100,3
1127,3100,4
1128,3105,1
1129,3105,8
1130,3113,5
1131,3114,0
1132,3125,1
1133,3130,7
1134,3156,9
1135,3156,1
1136,3157,2
1137,3157,9
1138,3157,1
1139,3159,0
1140,3173,7
1141,3177,7
1142,3178,5
1143,3181,1
1144,3186,7
1145,3186,4
1146,3186,8
1147,3189,7
1148,3189,4
1149,3189,8
1150,3213,7
1151,3213,4
1152,3213,1
1153,3213,8
1154,3217,11
1155,3246,3
1156,3246,6
1157,3246,4
1158,3247,0
1159,3248,0
1160,3249,5
1161,3255,1
1162,3257,7
1163,3257,4
1164,3257,8
1165,3262,6
1166,3263,5
1167,3267,1
1168,3269,7
1169,3285,5
1170,3287,0
1171,3298,7
1172,3298,8
1173,3306,6
1174,3307,6
1175,3310,6
1176,3325,3
1177,3325,4
1178,3355,3
1179,3355,4
1180,3358,8
1181,3362,7
1182,3363,4
1183,3396,0
1184,3397,0
1185,3398,9
1186,3398,1
1187,3408,2
1188,3408,1
1189,3409,3
1190,3409,4
1191,3420,7
1192,3420,4
1193,3420,8
1194,3422,2
1195,3424,4
1196,3424,8
1197,3425,7
1198,3425,4
1199,3425,8
1200,3432,4
1201,3438,4
1202,3439,3
1203,3439,4
1204,3448,5
1205,3450,7
1206,3450,8
1207,3452,7
1208,3452,4
1209,3454,2
1210,3462,6
1211,3468,5
1212,3479,5
1213,3481,5
1214,3483,2
1215,3502,2
1216,3510,7
1217,3510,4
1218,3510,8
1219,3524,3
1220,3524,7
1221,3524,4
1222,3525,5
1223,3527,5
1224,3531,6
1225,3535,3
1226,3535,4
1227,3544,1
1228,3546,7
1229,3559,6
1230,3578,2
1231,3578,3
1232,3578,5
1233,3578,4
1234,3584,8
1235,3615,0
1236,3623,2
1237,3623,9
1238,3623,1
1239,3629,6
1240,3632,6
1241,3637,6
1242,3640,6
1243,3641,6
1244,3646,2
1245,3646,3
1246,3646,4
1247,3654,1
1248,3673,0
1249,3676,6
1250,3678,1
1251,3678,11
1252,3681,4
1253,3686,1
1254,3697,5
1255,3702,7
1256,3703,7
1257,3713,3
1258,3713,4
1259,3717,5
1260,3732,5
1261,3735,7
1262,3735,4
1263,3735,8
1264,3736,4
1265,3740,5
1266,3742,6
1267,3742,11
1268,3744,2
1269,3752,5
1270,3752,4
1271,3753,7
1272,3753,4
1273,3755,3
1274,3755,7
1275,3755,4
1276,3763,4
1277,3784,0
1278,3790,7
1279,3793,0
1280,3798,5
1281,3801,7
1282,3801,4
1283,3801,8
1284,3806,4
1285,3808,1
1286,3816,2
1287,3821,2
1288,3824,3
1289,3824,4
1290,3825,5
1291,3826,7
1292,3826,4
1293,3826,8
1294,3827,7
1295,3827,4
1296,3827,1
1297,3827,8
1298,3832,11
1299,3849,11
1300,3859,14
1301,3879,7
1302,3879,4
1303,3882,3
1304,3882,4
1305,3896,3
1306,3896,4
1307,3897,9
1308,3897,1
1309,3898,7
1310,3898,8
1311,3911,7
1312,3911,8
1313,3916,0
1314,3917,3
1315,3917,4
1316,3918,3
1317,3926,5
1318,3927,5
1319,3949,3
1320,3949,4
1321,3953,3
1322,3953,4
1323,3964,0
1324,3965,11
1325,3966,1
1326,3966,11
1327,3968,3
1328,3968,4
1329,3969,3
1330,3969,7
1331,3969,4
1332,3973,2
1333,3977,1
1334,3979,3
1335,3979,7
1336,3979,4
1337,3980,5
1338,3981,7
1339,3986,7
1340,3986,4
1341,3986,8
1342,3988,2
1343,3988,3
1344,3988,4
1345,3988,1
1346,3988,8
1347,3991,0
1348,3994,5
1349,3996,2
1350,3996,1
1351,3999,7
1352,3999,4
1353,3999,1
1354,3999,8
1355,4007,5
1356,4011,1
1357,4015,5
1358,4016,0
1359,4018,3
1360,4018,4
1361,4019,7
1362,4019,4
1363,4019,8
1364,4022,3
1365,4022,7
1366,4022,4
1367,4023,3
1368,4023,4
1369,4025,3
1370,4025,4
1371,4031,7
1372,4031,4
1373,4031,8
1374,4033,4
1375,4034,3
1376,4034,4
1377,4052,4
1378,4069,3
1379,4069,4
1380,4074,4
1381,4080,4
1382,4084,7
1383,4085,3
1384,4085,4
1385,4091,5
1386,4103,3
1387,4103,7
1388,4103,4
1389,4105,7
1390,4105,4
1391,4105,8
1392,4121,7
1393,4127,4
1394,4128,4
1395,4128,8
1396,4143,7
1397,4143,4
1398,4143,8
1399,4144,6
1400,4148,2
1401,4154,0
1402,4159,7
1403,4159,4
1404,4167,7
1405,4167,4
1406,4167,8
1407,4214,4
1408,4215,5
1409,4217,7
1410,4217,4
1411,4217,8
1412,4223,3
1413,4223,4
1414,4224,7
1415,4226,2
1416,4226,3
1417,4226,4
1418,4231,5
1419,4233,7
1420,4235,2
1421,4237,6
1422,4237,15
1423,4239,7
1424,4239,8
1425,4246,2
1426,4248,4
1427,4262,2
1428,4262,7
1429,4262,4
1430,4262,8
1431,4265,7
1432,4265,4
1433,4265,8
1434,4270,2
1435,4299,9
1436,4299,1
1437,4305,7
1438,4305,4
1439,4305,8
1440,4306,2
1441,4306,3
1442,4306,9
1443,4306,4
1444,4306,1
1445,4308,5
1446,4310,5
1447,4317,3
1448,4317,4
1449,4329,7
1450,4344,7
1451,4351,3
1452,4351,9
1453,4351,4
1454,4351,1
1455,4356,5
1456,4359,5
1457,4361,7
1458,4361,4
1459,4366,0
1460,4368,0
1461,4369,7
1462,4369,4
1463,4369,8
1464,4370,7
1465,4386,3
1466,4386,7
1467,4386,4
1468,4404,11
1469,4437,3
1470,4437,4
1471,4438,4
1472,4440,4
1473,4441,4
1474,4444,3
1475,4444,4
1476,4446,8
1477,4452,3
1478,4452,4
1479,4474,5
1480,4476,0
1481,4487,5
1482,4505,7
1483,4505,4
1484,4505,8
1485,4506,7
1486,4529,3
1487,4529,4
1488,4580,4
1489,4587,7
1490,4587,4
1491,4587,8
1492,4614,2
1493,4621,1
1494,4628,5
1495,4636,5
1496,4638,2
1497,4638,3
1498,4638,5
1499,4638,4
1500,4639,7
1501,4639,4
1502,4639,8
1503,4640,3
1504,4640,4
1505,4642,7
1506,4642,4
1507,4642,8
1508,4643,5
1509,4646,3
1510,4646,4
1511,4662,2
1512,4673,7
1513,4673,4
1514,4677,0
1515,4681,5
1516,4700,0
1517,4701,7
1518,4701,4
1519,4701,8
1520,4703,6
1521,4710,4
1522,4717,4
1523,4718,2
1524,4718,4
1525,4718,8
1526,4736,4
1527,4736,8
1528,4743,4
1529,4744,3
1530,4744,4
1531,4749,2
1532,4774,5
1533,4776,7
1534,4789,5
1535,4800,11
1536,4811,7
1537,4811,8
1538,4815,7
1539,4816,7
1540,4816,4
1541,4821,5
1542,4821,4
1543,4822,0
1544,4825,3
1545,4825,4
1546,4831,13
1547,4840,6
1548,4855,4
1549,4865,5
1550,4867,7
1551,4867,4
1552,4867,8
1553,4876,1
1554,4878,3
1555,4878,6
1556,4878,4
1557,4880,7
1558,4880,4
1559,4885,3
1560,4885,4
1561,4886,0
1562,4889,7
1563,4889,4
1564,4889,8
1565,4890,5
1566,4896,7
1567,4896,4
1568,4896,8
1569,4901,3
1570,4901,4
1571,4912,13
1572,4936,7
1573,4936,4
1574,4936,8
1575,4945,7
1576,4957,3
1577,4957,7
1578,4957,4
1579,4963,7
1580,4969,11
1581,4971,7
1582,4971,4
1583,4971,8
1584,4975,1
1585,4979,5
1586,4989,2
1587,4990,4
1588,4993,7
1589,4993,4
1590,4993,8
1591,4995,7
1592,5009,3
1593,5009,4
1594,5010,2
1595,5010,9
1596,5012,13
1597,5013,6
1598,5014,4
1599,5015,3
1600,5015,4
1601,5023,8
1602,5046,4
1603,5046,8
1604,5048,0
1605,5060,5
1606,5063,11
1607,5065,3
1608,5065,4
1609,5076,0
1610,5092,2
1611,5092,7
1612,5092,8
1613,5093,4
1614,5093,1
1615,5102,0
1616,5103,0
1617,5108,4
1618,5109,0
1619,5110,5
1620,5111,5
1621,5156,3
1622,5156,4
1623,5168,1
1624,5168,11
1625,5171,7
1626,5202,6
1627,5218,0
1628,5219,7
1629,5219,4
1630,5219,1
1631,5220,4
1632,5220,8
1633,5222,5
1634,5254,3
1635,5266,7
1636,5266,4
1637,5266,8
1638,5267,0
1639,5269,6
1640,5282,3
1641,5282,4
1642,5283,3
1643,5283,4
1644,5293,4
1645,5294,3
1646,5294,4
1647,5296,7
1648,5296,4
1649,5303,7
1650,5308,0
1651,5309,0
1652,5313,2
1653,5319,5
1654,5323,7
1655,5323,4
1656,5323,8
1657,5349,2
1658,5349,1
1659,5357,0
1660,5361,0
1661,5364,3
1662,5364,5
1663,5364,4
1664,5378,0
1665,5380,13
1666,5387,7
1667,5387,4
1668,5387,8
1669,5389,2
1670,5414,5
1671,5415,3
1672,5415,7
1673,5415,4
1674,5418,3
1675,5418,4
1676,5419,7
1677,5419,4
1678,5419,8
1679,5440,7
1680,5444,0
1681,5444,1
1682,5445,3
1683,5445,4
1684,5449,1
1685,5452,1
1686,5459,9
1687,5459,1
1688,5460,7
1689,5464,5
1690,5480,9
1691,5480,1
1692,5481,3
1693,5481,7
1694,5481,4
1695,5502,5
1696,5506,7
1697,5506,4
1698,5507,2
1699,5529,3
1700,5529,4
1701,5541,5
1702,5550,5
1703,5556,7
1704,5556,4
1705,5556,8
1706,5563,7
1707,5563,4
1708,5570,3
1709,5570,4
1710,5574,5
1711,5574,4
1712,5596,5
1713,5607,5
1714,5612,7
1715,5612,4
1716,5612,8
1717,5617,3
1718,5617,4
1719,5618,2
1720,5630,2
1721,5630,3
1722,5630,7
1723,5630,4
1724,5630,8
1725,5665,7
1726,5665,4
1727,5665,1
1728,5665,8
1729,5666,1
1730,5667,0
1731,5668,3
1732,5668,4
1733,5670,2
1734,5673,1
1735,5678,3
1736,5678,4
1737,5685,7
1738,5685,4
1739,5685,8
1740,5712,4
1741,5733,5
1742,5784,2
1743,5784,3
1744,5784,4
1745,5785,2
1746,5799,4
1747,5804,0
1748,5809,3
1749,5809,4
1750,5810,2
1751,5810,7
1752,5810,4
1753,5810,8
1754,5816,7
1755,5816,4
1756,5816,8
1757,5818,2
1758,5841,2
1759,5874,7
1760,5879,7
1761,5879,4
1762,5879,8
1763,5882,0
1764,5900,7
1765,5941,0
1766,5942,5
1767,5943,4
1768,5945,3
1769,5945,7
1770,5945,4
1771,5952,7
1772,5952,4
1773,5952,8
1774,5954,5
1775,5956,9
1776,5956,1
1777,5957,7
1778,5957,4
1779,5957,8
1780,5970,2
1781,5971,2
1782,5974,11
1783,5989,2
1784,5989,3
1785,5989,9
1786,5989,4
1787,5994,4
1788,5995,2
1789,6006,5
1790,6012,4
1791,6013,7
1792,6013,8
1793,6014,2
1794,6040,4
1795,6058,7
1796,6058,4
1797,6058,8
1798,6063,4
1799,6123,6
1800,6155,2
1801,6157,3
1802,6157,5
1803,6157,4
1804,6158,0
1805,6166,7
1806,6166,8
1807,6187,2
1808,6196,7
1809,6212,5
1810,6213,2
1811,6213,9
1812,6213,1
1813,6215,7
1814,6219,2
1815,6220,7
1816,6220,4
1817,6220,8
1818,6222,1
1819,6239,0
1820,6241,6
1821,6242,3
1822,6242,4
1823,6245,7
1824,6245,4
1825,6245,8
1826,6250,7
1827,6250,4
1828,6251,0
1829,6270,4
1830,6270,8
1831,6273,7
1832,6273,4
1833,6273,8
1834,6279,3
1835,6279,4
1836,6281,5
1837,6287,9
1838,6287,1
1839,6289,2
1840,6290,4
1841,6294,3
1842,6294,4
1843,6297,0
1844,6303,4
1845,6320,5
1846,6322,3
1847,6323,7
1848,6323,4
1849,6323,8
1850,6332,0
1851,6333,0
1852,6338,2
1853,6350,2
1854,6365,2
1855,6365,7
1856,6365,4
1857,6373,5
1858,6377,0
1859,6379,3
1860,6380,7
1861,6383,7
1862,6383,4
1863,6383,8
1864,6405,0
1865,6433,16
1866,6436,6
1867,6461,4
1868,6464,2
1869,6482,7
1870,6482,4
1871,6482,8
1872,6484,7
1873,6484,4
1874,6502,5
1875,6503,2
1876,6503,8
1877,6534,2
1878,6534,5
1879,6536,2
1880,6536,7
1881,6536,4
1882,6536,8
1883,6537,7
1884,6537,4
1885,6537,8
1886,6539,0
1887,6541,5
1888,6548,7
1889,6548,4
1890,6548,8
1891,6560,8
1892,6586,2
1893,6586,8
1894,6591,3
1895,6591,4
1896,6593,0
1897,6595,2
1898,6620,7
1899,6620,4
1900,6620,8
1901,6625,0
1902,6644,6
1903,6659,2
1904,6664,5
1905,6686,1
1906,6705,14
1907,6708,7
1908,6708,4
1909,6708,8
1910,6711,9
1911,6721,3
1912,6721,4
1913,6722,3
1914,6723,3
1915,6723,4
1916,6732,0
1917,6751,5
1918,6754,3
1919,6754,4
1920,6765,5
1921,6776,2
1922,6787,4
1923,6787,8
1924,6793,2
1925,6794,2
1926,6797,2
1927,6797,8
1928,6810,5
1929,6817,4
1930,6837,11
1931,6863,2
1932,6863,9
1933,6870,7
1934,6870,4
1935,6870,8
1936,6879,4
1937,6885,2
1938,6887,1
1939,6889,0
1940,6890,4
1941,6890,8
1942,6912,7
1943,6912,4
1944,6912,8
1945,6918,12
1946,6927,3
1947,6927,4
1948,6934,2
1949,6934,7
1950,6936,3
1951,6936,7
1952,6936,4
1953,6942,3
1954,6942,4
1955,6946,7
1956,6947,2
1957,6950,7
1958,6950,4
1959,6951,3
1960,6951,4
1961,6952,1
1962,6953,7
1963,6953,4
1964,6958,0
1965,6959,4
1966,6969,4
1967,6987,3
1968,6987,4
1969,6987,11
1970,6997,5
1971,7007,7
1972,7012,5
1973,7018,4
1974,7018,8
1975,7027,2
1976,7030,7
1977,7030,4
1978,7030,8
1979,7037,3
1980,7037,4
1981,7044,7
1982,7045,7
1983,7046,7
1984,7046,4
1985,7046,8
1986,7058,11
1987,7069,4
1988,7069,13
1989,7076,7
1990,7079,11
1991,7088,3
1992,7088,4
1993,7099,2
1994,7101,7
1995,7108,3
1996,7108,4
1997,7117,3
1998,7117,4
1999,7132,7
2000,7143,7
2001,7143,4
2002,7143,1
2003,7143,8
2004,7147,9
2005,7147,1
2006,7149,3
2007,7149,7
2008,7149,4
2009,7153,7
2010,7153,4
2011,7153,8
2012,7154,7
2013,7154,4
2014,7160,3
2015,7160,4
2016,7161,0
2017,7164,2
2018,7164,9
2019,7164,1
2020,7164,13
2021,7171,16
2022,7173,2
2023,7175,7
2024,7205,4
2025,7215,7
2026,7223,11
2027,7254,2
2028,7254,3
2029,7254,7
2030,7254,4
2031,7259,2
2032,7263,0
2033,7263,4
2034,7293,2
2035,7293,1
2036,7306,2
2037,7316,0
2038,7317,3
2039,7317,4
2040,7318,5
2041,7321,4
2042,7323,7
2043,7323,4
2044,7324,5
2045,7346,2
2046,7346,3
2047,7346,4
2048,7347,7
2049,7347,4
2050,7347,8
2051,7357,5
2052,7360,2
2053,7361,2
2054,7361,9
2055,7361,8
2056,7362,7
2057,7362,4
2058,7362,8
2059,7367,5
2060,7369,3
2061,7369,7
2062,7369,4
2063,7373,9
2064,7373,1
2065,7439,7
2066,7439,4
2067,7439,1
2068,7439,8
2069,7445,2
2070,7445,3
2071,7445,5
2072,7445,4
2073,7449,3
2074,7449,4
2075,7450,3
2076,7450,4
2077,7451,3
2078,7451,7
2079,7451,4
2080,7454,2
2081,7454,7
2082,7454,4
2083,7454,8
2084,7458,7
2085,7459,2
2086,7477,2
2087,7477,8
2088,7481,5
2089,7482,7
2090,7486,6
2091,7560,4
2092,7572,7
2093,7572,8
2094,7636,7
2095,7636,4
2096,7636,8
2097,7701,9
2098,7701,1
2099,7704,4
2100,7713,7
2101,7730,3
2102,7730,4
2103,7757,2
2104,7781,3
2105,7802,3
2106,7802,4
2107,7891,11
2108,7932,17
2109,7980,4
2110,7993,11
2111,8016,7
2112,8033,5
2113,8125,11
2114,8132,2
2115,8138,3
2116,8138,4
2117,8207,7
2118,8207,4
2119,8207,8
2120,8225,7
2121,8225,4
2122,8225,8
2123,8235,11
2124,8253,2
2125,8261,5
2126,8261,4
2127,8266,3
2128,8266,4
2129,8302,11
2130,8340,4
2131,8360,2
2132,8360,7
2133,8360,4
2134,8360,1
2135,8361,5
2136,8361,4
2137,8362,5
2138,8368,7
2139,8368,4
2140,8368,18
2141,8368,8
2142,8371,4
2143,8372,0
2144,8387,3
2145,8387,4
2146,8410,1
2147,8410,11
2148,8464,3
2149,8464,4
2150,8477,6
2151,8507,7
2152,8507,11
2153,8521,11
2154,8526,3
2155,8526,4
2156,8528,5
2157,8529,9
2158,8529,7
2159,8531,2
2160,8531,9
2161,8533,7
2162,8533,4
2163,8534,4
2164,8582,15
2165,8607,2
2166,8623,7
2167,8623,4
2168,8623,8
2169,8636,2
2170,8640,5
2171,8641,2
2172,8641,9
2173,8643,7
2174,8643,4
2175,8643,8
2176,8644,5
2177,8644,4
2178,8645,7
2179,8656,6
2180,8665,3
2181,8665,5
2182,8665,4
2183,8666,3
2184,8666,7
2185,8666,4
2186,8677,11
2187,8724,5
2188,8771,1
2189,8773,1
2190,8774,1
2191,8799,4
2192,8808,0
2193,8810,5
2194,8815,7
2195,8815,4
2196,8830,2
2197,8831,4
2198,8832,7
2199,8832,4
2200,8832,1
2201,8832,8
2202,8860,7
2203,8861,9
2204,8861,1
2205,8866,2
2206,8869,3
2207,8869,4
2208,8874,3
2209,8874,4
2210,8907,2
2211,8907,7
2212,8907,4
2213,8907,8
2214,8912,5
2215,8914,6
2216,8917,4
2217,8937,4
2218,8937,8
2219,8946,4
2220,8947,3
2221,8947,4
2222,8949,5
2223,8950,4
2224,8957,3
2225,8957,4
2226,8958,2
2227,8958,8
2228,8961,0
2229,8965,3
2230,8965,7
2231,8965,4
2232,8967,2
2233,8967,7
2234,8967,4
2235,8967,8
2236,8969,2
2237,8972,0
2238,8973,3
2239,8973,4
2240,8973,8
2241,8974,2
2242,8974,3
2243,8974,9
2244,8974,4
2245,8974,1
2246,8977,7
2247,8981,2
2248,8981,1
2249,8983,4
2250,8984,7
2251,8985,3
2252,8985,4
2253,25750,11
2254,25752,11
2255,25753,11
2256,25927,1
2257,25927,11
2258,25963,10
2259,25996,7
2260,26003,6
2261,26052,6
2262,26116,5
2263,26116,4
2264,26131,6
2265,26133,19
2266,26151,6
2267,26152,5
2268,26258,6
2269,26326,6
2270,26344,5
2271,26365,4
2272,26375,5
2273,26386,5
2274,26386,4
2275,26492,8
2276,26510,0
2277,26527,6
2278,26542,0
2279,26578,6
2280,26599,6
2281,26662,2
2282,26696,1
2283,26743,2
2284,26776,2
2285,26791,5
2286,26870,2
2287,26903,2
2288,26940,7
2289,26940,4
2290,26940,8
2291,26999,0
2292,27020,7
2293,27020,4
2294,27020,8
2295,27156,2
2296,27266,6
2297,27311,7
2298,27329,4
2299,27329,8
2300,27373,7
2301,27397,20
2302,27408,7
2303,27408,4
2304,27408,8
2305,27584,3
2306,27584,4
2307,27619,0
2308,27660,7
2309,27692,4
2310,27692,8
2311,27695,3
2312,27695,4
2313,27705,4
2314,27706,2
2315,27706,1
2316,27731,2
2317,27746,4
2318,27778,4
2319,27808,2
2320,27821,2
2321,27821,7
2322,27821,4
2323,27821,8
2324,27822,2
2325,27822,3
2326,27822,4
2327,27826,7
2328,27826,4
2329,27826,8
2330,27830,8
2331,27837,5
2332,30707,3
2333,30707,4
2334,30749,3
2335,30749,4
2336,30793,7
2337,30793,4
2338,30810,5
2339,30812,2
2340,30812,3
2341,30812,4
2342,30822,8
2343,31150,5
2344,31420,4
2345,31422,2
2346,31427,5
2347,31427,4
2348,31431,2
2349,31431,3
2350,31431,4
2351,31433,2
2352,31553,1
2353,31658,2
2354,31664,20
2355,31685,2
2356,31696,7
2357,31696,8
2358,31698,7
2359,31698,4
2360,31700,0
2361,31804,4
2362,31878,2
2363,31878,8
2364,32017,0
2365,32019,4
2366,32031,0
2367,32060,11
2368,32234,5
2369,32289,0
2370,32291,5
2371,32296,7
2372,32296,4
2373,32296,8
2374,32298,3
2375,32298,5
2376,32298,4
2377,32456,2
2378,32589,4
2379,32743,3
2380,32743,4
2381,33158,1
2382,33162,5
2383,33164,7
2384,33164,4
2385,33164,8
2386,33201,3
2387,33201,4
2388,33493,0
2389,33499,7
2390,33499,4
2391,33499,8
2392,33615,4
2393,33615,1
2394,33615,8
2395,33644,7
2396,33644,4
2397,33646,2
2398,33646,9
2399,33646,4
2400,33646,1
2401,33660,5
2402,33669,7
2403,33679,2
2404,33679,3
2405,33679,5
2406,33679,4
2407,33681,2
2408,33681,9
2409,33681,1
2410,33794,7
2411,33815,2
2412,33830,0
2413,33893,3
2414,33893,4
2415,34048,2
2416,34048,3
2417,34048,9
2418,34048,7
2419,34048,4
2420,34048,1
2421,34129,5
2422,34150,0
2423,34162,3
2424,34162,4
2425,34326,7
2426,34326,4
2427,34326,8
2428,34332,0
2429,34336,7
2430,34336,4
2431,34336,8
2432,34405,3
2433,34405,4
2434,34437,7
2435,34437,4
2436,34437,8
2437,34520,7
2438,34532,7
2439,34532,4
2440,34532,8
2441,34534,2
2442,35836,3
2443,35836,4
2444,36509,7
2445,36509,4
2446,36509,8
2447,36517,7
2448,36517,4
2449,36517,8
2450,36519,5
2451,36519,4
2452,36525,3
2453,36525,4
2454,36527,4
2455,36529,3
2456,36529,4
2457,36533,4
2458,37380,2
2459,37382,4
2460,37382,1
2461,37382,8
2462,37384,3
2463,37384,4
2464,37475,3
2465,37475,4
2466,37477,7
2467,37477,4
2468,37477,8
2469,37720,2
2470,37727,5
2471,37729,7
2472,37729,4
2473,37729,8
2474,37733,7
2475,37739,0
2476,37857,3
2477,37857,4
2478,38061,7
2479,38061,4
2480,38061,8
2481,38159,6
2482,38388,5
2483,38798,5
2484,39183,2
2485,39183,7
2486,39183,8
2487,39292,6
2488,39400,7
2489,39400,4
2490,39435,1
2491,39446,3
2492,39446,4
2493,40278,7
2494,40278,4
2495,40278,8
2496,40339,0
2497,40414,7
2498,40414,4
2499,40414,8
2500,40581,3
2501,40581,4
2502,40583,7
2503,40629,2
2504,40629,4
2505,40629,8
2506,40732,3
2507,40732,4
2508,40815,7
2509,40815,4
2510,40815,8
2511,40819,5
2512,40851,1
2513,40962,4
2514,41285,3
2515,41285,9
2516,41285,4
2517,41566,0
2518,41569,2
2519,41569,3
2520,41569,4
2521,41569,8
2522,41571,9
2523,41573,5
2524,41716,3
2525,41716,4
2526,42007,7
2527,42009,0
2528,42011,2
2529,42015,5
2530,42015,13
2531,42191,0
2532,42418,7
2533,42723,2
2534,42730,0
2535,42732,3
2536,42732,4
2537,42738,7
2538,42738,4
2539,42738,1
2540,43419,5
2541,43556,5
2542,43558,2
2543,43558,3
2544,43558,5
2545,43558,4
2546,43560,2
2547,43677,7
2548,43677,4
2549,43677,8
2550,43679,3
2551,43679,4
2552,43836,4
2553,43871,4
2554,43871,8
2555,43904,7
2556,43904,4
2557,43904,8
2558,43912,7
2559,43912,4
2560,43917,0
2561,43919,5
2562,43919,4
2563,43930,3
2564,43930,4
2565,44004,2
2566,44022,0
2567,44191,3
2568,44191,7
2569,44191,4
2570,44195,5
2571,44197,9
2572,44199,3
2573,44199,9
2574,44199,4
2575,44238,3
2576,44238,4
2577,44241,3
2578,44241,4
2579,44243,3
2580,44633,3
2581,44633,4
2582,44657,6
2583,44709,3
2584,44709,4
2585,44840,7
2586,44840,4
2587,44840,8
2588,44864,2
2589,45074,0
2590,45186,2
2591,45186,9
2592,45186,1
2593,45208,8
2594,45210,2
2595,45210,8
2596,45431,2
2597,45431,7
2598,45440,4
2599,45442,7
2600,45442,1
2601,45442,8
2602,45447,2
2603,45447,1
2604,45499,0
2605,45501,2
2606,45501,3
2607,45501,5
2608,45501,4
2609,45517,0
2610,45635,4
2611,45635,8
2612,45662,5
2613,45666,4
2614,45668,7
2615,45668,4
2616,45672,7
2617,45672,4
2618,45672,8
2619,45720,5
2620,45722,0
2621,45726,2
2622,45726,7
2623,45726,4
2624,45726,8
2625,45730,7
2626,45732,4
2627,45880,7
2628,45880,4
2629,45880,8
2630,46062,0
2631,46335,7
2632,46335,4
2633,46335,1
2634,46335,8
2635,46337,0
2636,46530,7
2637,46578,5
2638,46865,2
2639,46948,2
2640,46967,3
2641,46967,4
2642,46970,7
2643,46970,8
2644,46972,0
2645,46974,2
2646,46974,4
2647,47044,3
2648,47044,4
2649,47099,7
2650,47099,4
2651,47099,8
2652,47122,5
2653,47200,2
2654,47200,3
2655,47200,4
2656,47254,3
2657,47382,2
2658,47382,3
2659,47382,4
2660,47384,7
2661,47384,4
2662,47384,1
2663,47465,3
2664,47465,4
2665,47518,4
2666,47518,8
2667,47610,3
2668,47610,4
2669,47644,0
2670,47952,7
2671,47952,4
2672,47952,8
2673,48142,1
2674,48161,2
2675,48262,17
2676,48319,3
2677,48319,4
2678,48322,2
2679,48326,7
2680,48326,4
2681,48326,8
2682,48385,5
2683,48414,2
2684,48516,7
2685,48518,7
2686,48518,4
2687,48518,8
2688,48738,5
2689,48877,3
2690,48877,4
2691,48982,2
2692,49013,0
2693,49110,7
2694,49130,5
2695,49274,7
2696,49274,4
2697,49274,8
2698,49278,5
2699,49286,2
2700,49286,3
2701,49286,4
2702,49347,3
2703,49347,4
2704,49396,7
2705,49396,4
2706,49396,8
2707,49524,7
2708,49530,3
2709,49530,7
2710,49530,4
2711,49649,0
2712,49651,2
2713,49772,2
2714,49793,7
2715,49822,7
2716,49822,4
2717,49824,2
2718,49824,7
2719,49910,2
2720,49961,5
2721,50792,7
2722,50792,4
2723,50794,7
2724,50794,4
2725,50794,1
2726,50794,8
2727,50798,5
2728,50798,4
2729,50800,3
2730,50800,4
2731,50804,3
2732,50804,4
2733,50806,2
2734,50872,0
2735,50872,1
2736,50954,1
2737,51077,1
2738,51082,2
2739,51082,3
2740,51084,7
2741,51086,7
2742,51255,3
2743,51255,4
2744,51255,8
2745,51357,7
2746,51357,4
2747,51357,8
2748,51412,3
2749,51412,4
2750,51575,5
2751,51662,2
2752,51662,7
2753,51694,7
2754,51694,8
2755,51709,2
2756,51834,3
2757,51834,4
2758,51927,2
2759,51927,4
2760,51927,8
2761,51931,1
2762,51939,3
2763,51939,4
2764,52245,2
2765,52283,3
2766,52283,4
2767,52287,0
2768,52287,1
2769,52328,5
2770,52604,3
2771,52604,4
2772,52694,2
2773,52694,3
2774,52694,4
2775,52715,3
2776,52715,4
2777,52722,7
2778,52722,4
2779,52722,8
2780,52724,7
2781,52724,4
2782,52724,8
2783,52975,7
2784,52975,4
2785,52975,8
2786,53000,5
2787,53121,2
2788,53121,7
2789,53125,0
2790,53322,3
2791,53322,7
2792,53322,4
2793,53447,6
2794,53460,7
2795,53460,4
2796,53460,8
2797,53464,0
2798,53466,7
2799,53468,4
2800,53808,2
2801,53953,3
2802,53953,4
2803,53972,5
2804,53974,3
2805,53974,4
2806,53993,2
2807,53993,9
2808,53996,3
2809,53996,7
2810,53996,4
2811,54001,7
2812,54001,4
2813,54001,8
2814,54004,2
2815,54004,4
2816,54116,3
2817,54116,9
2818,54116,4
2819,54190,8
2820,54259,2
2821,54272,0
2822,54272,5
2823,54276,2
2824,54276,3
2825,54276,4
2826,54286,3
2827,54286,5
2828,54286,4
2829,54503,2
2830,54648,7
2831,54648,4
2832,54648,8
2833,54686,3
2834,54686,4
2835,54732,3
2836,54732,4
2837,54736,2
2838,54745,8
2839,54768,7
2840,54768,4
2841,54768,8
2842,54780,3
2843,54780,4
2844,54997,1
2845,54999,7
2846,54999,8
2847,55052,3
2848,55052,4
2849,55080,7
2850,55080,4
2851,55080,1
2852,55080,8
2853,55094,2
2854,55094,3
2855,55094,4
2856,55232,7
2857,55232,4
2858,55232,8
2859,55250,0
2860,55267,8
2861,55269,5
2862,55274,7
2863,55274,4
2864,55274,8
2865,55577,3
2866,55577,4
2867,55729,7
2868,55729,4
2869,55729,8
2870,55765,2
2871,55765,3
2872,55765,5
2873,55765,4
2874,55768,2
2875,55805,3
2876,55805,6
2877,55805,4
2878,55872,3
2879,55872,4
2880,55872,1
2881,55995,7
2882,56145,4
2883,56156,5
2884,56171,7
2885,56171,4
2886,56171,8
2887,56174,7
2888,56174,4
2889,56174,8
2890,56176,2
2891,56176,0
2892,56176,3
2893,56176,4
2894,56339,2
2895,56367,3
2896,56367,4
2897,56389,4
2898,56587,7
2899,56587,4
2900,56757,7
2901,56775,0
2902,56788,3
2903,56788,4
2904,56801,5
2905,56837,7
2906,56837,4
2907,56837,13
2908,56837,8
2909,56915,2
2910,56941,3
2911,56941,4
2912,56949,0
2913,57147,3
2914,57147,4
2915,57183,2
2916,57274,3
2917,57274,4
2918,57368,9
2919,57368,1
2920,57522,2
2921,57528,3
2922,57528,4
2923,57532,4
2924,57669,7
2925,57669,1
2926,57669,8
2927,57951,7
2928,57951,4
2929,57951,8
2930,58025,2
2931,58025,3
2932,58025,4
2933,58047,4
2934,58047,8
2935,58103,2
2936,58103,1
2937,58154,3
2938,58154,4
2939,58154,1
2940,58156,7
2941,58291,0
2942,58293,7
2943,58293,4
2944,58293,8
2945,58295,3
2946,58295,4
2947,58347,3
2948,58347,4
2949,58559,7
2950,58627,2
2951,58627,3
2952,58627,4
2953,58655,4
2954,58803,9
2955,58998,7
2956,58998,4
2957,58998,8
2958,59016,3
2959,59016,4
2960,59022,2
2961,59037,7
2962,59037,4
2963,59037,1
2964,59037,8
2965,59118,6
2966,59315,0
2967,59333,2
2968,59369,5
2969,59369,4
2970,59421,3
2971,59421,4
2972,59501,0
2973,59615,2
2974,59725,7
2975,59727,4
2976,59727,1
2977,59727,8
2978,59738,4
2979,59784,2
2980,59784,1
2981,59810,7
2982,59810,4
2983,59810,8
2984,59900,2
2985,59947,3
2986,59947,4
2987,59985,7
2988,60037,5
2989,60040,2
2990,60040,5
2991,60046,3
2992,60046,4
2993,60069,0
2994,60072,2
2995,60072,3
2996,60072,7
2997,60072,4
2998,60072,1
2999,60072,8
3000,60074,2
3001,60126,3
3002,60126,7
3003,60126,4
3004,60363,1
3005,60487,19
3006,60514,7
3007,60516,3
3008,60516,5
3009,60516,4
3010,60684,3
3011,60684,9
3012,60684,4
3013,60684,1
3014,60760,5
3015,60937,2
3016,60979,7
3017,61026,3
3018,61026,4
3019,61071,7
3020,61073,7
3021,61123,0
3022,61160,0
3023,61210,3
3024,61210,4
3025,61248,2
3026,61248,4
3027,61250,2
3028,61348,3
3029,61348,4
3030,61350,5
3031,61352,3
3032,61697,3
3033,61697,4
3034,61705,2
3035,61986,7
3036,61986,4
3037,61986,8
3038,62081,2
3039,62374,3
3040,62374,4
3041,62394,5
3042,62394,1
3043,62439,3
3044,62439,4
3045,62553,5
3046,62792,7
3047,62792,4
3048,62792,8
3049,62849,7
3050,62849,4
3051,62849,1
3052,62849,8
3053,62999,2
3054,62999,7
3055,62999,4
3056,63062,2
3057,63062,3
3058,63062,4
3059,63072,7
3060,63072,4
3061,63072,1
3062,63072,8
3063,63131,4
3064,63131,8
3065,63239,0
3066,63393,0
3067,63436,3
3068,63436,4
3069,63479,3
3070,63479,4
3071,63540,0
3072,63859,0
3073,63992,2
3074,63992,3
3075,63992,7
3076,63992,4
3077,64030,3
3078,64030,4
3079,64032,7
3080,64032,4
3081,64114,2
3082,64249,2
3083,64497,5
3084,64499,1
3085,64501,3
3086,64501,4
3087,64501,1
3088,64614,3
3089,64614,7
3090,64614,4
3091,64716,2
3092,64839,3
3093,64839,4
3094,64839,1
3095,64839,8
3096,64957,3
3097,64957,7
3098,64957,4
3099,64969,3
3100,64969,4
3101,65088,0
3102,65193,2
3103,65230,2
3104,65230,0
3105,65230,3
3106,65230,4
3107,65261,2
3108,65514,2
3109,65585,2
3110,65585,3
3111,65585,4
3112,65601,3
3113,65601,4
3114,65682,2
3115,65802,2
3116,66171,3
3117,66171,4
3118,66203,7
3119,66203,4
3120,66203,8
3121,66240,4
3122,66310,4
3123,66509,3
3124,66509,4
3125,66511,2
3126,66665,7
3127,66665,4
3128,66665,8
3129,66798,4
3130,67193,3
3131,67193,4
3132,67197,2
3133,67197,3
3134,67197,4
3135,67408,2
3136,67695,7
3137,67695,4
3138,67923,7
3139,67923,4
3140,67923,8
3141,68135,7
3142,68135,4
3143,68135,8
3144,68157,2
3145,68157,3
3146,68157,9
3147,68157,4
3148,68157,1
3149,68159,3
3150,68159,4
3151,68205,4
3152,68237,1
3153,68319,0
3154,68358,2
3155,68358,3
3156,68358,9
3157,68358,4
3158,68358,1
3159,68444,3
3160,68444,4
3161,68552,3
3162,68552,4
3163,68554,2
3164,68791,1
3165,68793,0
3166,68835,13
3167,68954,0
3168,69122,7
3169,69131,7
3170,69406,5
3171,69436,2
3172,69436,1
3173,69481,4
3174,69526,3
3175,69526,7
3176,69526,4
3177,69606,7
3178,69606,4
3179,69606,8
3180,69640,3
3181,69640,4
3182,69644,0
3183,69712,3
3184,69712,4
3185,69805,4
3186,69844,7
3187,69844,4
3188,69844,8
3189,69904,2
3190,69904,3
3191,69904,4
3192,70159,4
3193,70183,1
3194,70286,9
3195,70286,1
3196,70293,1
3197,70301,2
3198,70305,0
3199,70334,0
3200,70361,5
3201,70361,4
3202,70533,3
3203,70533,4
3204,70599,3
3205,70599,4
3206,70641,5
3207,70663,5
3208,70697,0
3209,71033,4
3210,71057,3
3211,71057,4
3212,71057,1
3213,71106,7
3214,71106,4
3215,71106,8
3216,71135,3
3217,71135,4
3218,71205,5
3219,71211,7
3220,71252,7
3221,71252,4
3222,71254,4
3223,71264,2
3224,71264,9
3225,71264,1
3226,71379,9
3227,71429,3
3228,71429,4
3229,71518,3
3230,71520,3
3231,71520,4
3232,71520,8
3233,71530,5
3234,71535,2
3235,71535,9
3236,71535,1
3237,71550,9
3238,71668,2
3239,71668,4
3240,71668,8
3241,71745,7
3242,71745,4
3243,71745,8
3244,71838,3
3245,71838,4
3246,71902,3
3247,71902,4
3248,71999,6
3249,72011,2
3250,72129,3
3251,72129,4
3252,72165,7
3253,72165,4
3254,72226,4
3255,72294,0
3256,72356,0
3257,72378,2
3258,72378,9
3259,72378,1
3260,72395,3
3261,72395,6
3262,72395,4
3263,72407,2
3264,72407,3
3265,72407,7
3266,72407,4
3267,72489,7
3268,72489,4
3269,72591,4
3270,72641,3
3271,72641,4
3272,72692,0
3273,72696,0
3274,72701,3
3275,72701,4
3276,72720,1
3277,72731,2
3278,72733,7
3279,72733,4
3280,72733,8
3281,72737,0
3282,72998,0
3283,73015,2
3284,73015,5
3285,73015,4
3286,73017,2
3287,73017,3
3288,73017,7
3289,73017,4
3290,73023,5
3291,73042,2
3292,73042,3
3293,73042,4
3294,73266,3
3295,73266,4
3296,73290,4
3297,73319,2
3298,73319,3
3299,73319,4
3300,73321,2
3301,73344,8
3302,73431,3
3303,73431,4
3304,73676,2
3305,73929,2
3306,74154,0
3307,74228,3
3308,74228,4
3309,74275,3
3310,74275,4
3311,74324,7
3312,74324,4
3313,74324,8
3314,74450,3
3315,74450,7
3316,74450,4
3317,74452,2
3318,74458,2
3319,74458,3
3320,74458,9
3321,74458,7
3322,74458,4
3323,74530,0
3324,74532,7
3325,74545,1
3326,74580,3
3327,74580,4
3328,74688,2
3329,74688,9
3330,74688,1
3331,74750,3
3332,74750,4
3333,74789,0
3334,74795,7
3335,74795,4
3336,74851,3
3337,74851,4
3338,74851,1
3339,74868,3
3340,74868,4
3341,74916,4
3342,74916,8
3343,74946,3
3344,74946,4
3345,75341,3
3346,75341,4
3347,75395,3
3348,75395,4
3349,75805,2
3350,75805,9
3351,75805,1
3352,75985,3
3353,75985,4
3354,76093,2
3355,76093,1
3356,76173,8
3357,76175,2
3358,76175,3
3359,76175,7
3360,76175,4
3361,76251,2
3362,76293,5
3363,76293,4
3364,76301,0
3365,77191,8
3366,77206,0
3367,77414,0
3368,77561,0
3369,77667,3
3370,77667,4
3371,77798,3
3372,77798,7
3373,77798,4
3374,77866,2
3375,77866,3
3376,77866,4
3377,78034,2
3378,78039,3
3379,78039,6
3380,78039,9
3381,78039,4
3382,78041,3
3383,78041,4
3384,78088,3
3385,78088,4
3386,78105,0
3387,78142,7
3388,78142,8
3389,78174,7
3390,78316,2
3391,78316,3
3392,78316,4
3393,78467,3
3394,78467,7
3395,78467,4
3396,78469,5
3397,78469,4
3398,78499,0
3399,78637,2
3400,78637,7
3401,78637,1
3402,78772,2
3403,78772,3
3404,78772,7
3405,78772,4
3406,78893,3
3407,78893,4
3408,79006,0
3409,79057,5
3410,79091,2
3411,79091,3
3412,79091,7
3413,79091,4
3414,79091,1
3415,79132,3
3416,79132,4
3417,79134,2
3418,79139,0
3419,79185,2
3420,79185,3
3421,79185,5
3422,79185,4
3423,79224,2
3424,79242,3
3425,79242,4
3426,79274,7
3427,79293,2
3428,79293,4
3429,79553,2
3430,79572,0
3431,79590,3
3432,79590,4
3433,79592,2
3434,79592,1
3435,79684,3
3436,79684,4
3437,79702,2
3438,79879,3
3439,79879,4
3440,79897,7
3441,79897,4
3442,79897,8
3443,79946,1
3444,80166,3
3445,80166,4
3446,80219,8
3447,80241,7
3448,80241,4
3449,80241,8
3450,80363,7
3451,80363,4
3452,80363,8
3453,80463,7
3454,80463,4
3455,80463,8
3456,80489,7
3457,80489,4
3458,80489,8
3459,80549,1
3460,80549,8
3461,80551,7
3462,80551,4
3463,80551,8
3464,80572,6
3465,80590,5
3466,80615,2
3467,80615,7
3468,80615,8
3469,80839,0
3470,80846,2
3471,80858,0
3472,80860,7
3473,80860,4
3474,80860,8
3475,80864,3
3476,80864,7
3477,80864,4
3478,80864,1
3479,80864,8
3480,80880,3
3481,80880,4
3482,80906,2
3483,80969,5
3484,81087,2
3485,81087,3
3486,81156,2
3487,81156,9
3488,81229,2
3489,81229,3
3490,81229,7
3491,81229,4
3492,81383,3
3493,81383,4
3494,81512,7
3495,81512,4
3496,81512,8
3497,81537,3
3498,81537,4
3499,81562,5
3500,81564,2
3501,81564,7
3502,81591,5
3503,81782,5
3504,81786,6
3505,81788,3
3506,81788,4
3507,81819,7
3508,81819,4
3509,81819,1
3510,81819,8
3511,81834,7
3512,81834,4
3513,81834,8
3514,81845,3
3515,81845,7
3516,81845,4
3517,81845,8
3518,81847,0
3519,81932,3
3520,81932,6
3521,81932,4
3522,82053,4
3523,82093,3
3524,82093,4
3525,82095,3
3526,82095,4
3527,82152,3
3528,82152,9
3529,82152,4
3530,82167,2
3531,82167,3
3532,82167,4
3533,82169,0
3534,82202,7
3535,82202,4
3536,82202,1
3537,82202,8
3538,82366,3
3539,82366,4
3540,82378,4
3541,82459,2
3542,82461,0
3543,82499,7
3544,82499,4
3545,82499,8
3546,82527,3
3547,82527,4
3548,82534,3
3549,82534,4
3550,82684,6
3551,82744,3
3552,82744,9
3553,82744,4
3554,82744,1
3555,82744,8
3556,82767,4
3557,82767,1
3558,82767,8
3559,82857,15
3560,83086,7
3561,83086,4
3562,83086,8
3563,83132,2
3564,83177,2
3565,83177,3
3566,83177,7
3567,83177,4
3568,83349,7
3569,83349,4
3570,83349,1
3571,83349,8
3572,83369,3
3573,83369,4
3574,83374,7
3575,83374,4
3576,83374,1
3577,83374,8
3578,83480,3
3579,83480,4
3580,83803,0
3581,83910,2
3582,84152,3
3583,84152,9
3584,84152,4
3585,84187,3
3586,84187,4
3587,84374,2
3588,84374,3
3589,84374,4
3590,84392,3
3591,84392,4
3592,84414,7
3593,84601,7
3594,84601,8
3595,84637,0
3596,84772,2
3597,84844,6
3598,84942,7
3599,84944,2
3600,84944,3
3601,84944,9
3602,84944,7
3603,84944,4
3604,84944,1
3605,84950,7
3606,84950,4
3607,84954,3
3608,84954,4
3609,85020,3
3610,85020,4
3611,85022,7
3612,85022,8
3613,85131,7
3614,85131,4
3615,85131,8
3616,85213,7
3617,85213,4
3618,85213,8
3619,85261,0
3620,85295,7
3621,85295,4
3622,85367,7
3623,85367,4
3624,85367,8
3625,85394,6
3626,85397,3
3627,85397,7
3628,85397,4
3629,85399,2
3630,85399,3
3631,85399,4
3632,85401,3
3633,85401,4
3634,85414,3
3635,85414,7
3636,85414,4
3637,85414,8
3638,85438,8
3639,85510,7
3640,85736,0
3641,85788,3
3642,85788,4
3643,86014,0
3644,86028,4
3645,86059,2
3646,86059,8
3647,86190,7
3648,86190,4
3649,86190,1
3650,86190,8
3651,86293,7
3652,86295,3
3653,86295,4
3654,86298,0
3655,86332,0
3656,86548,5
3657,86593,0
3658,86644,5
3659,86644,4
3660,86815,7
3661,86815,4
3662,86815,8
3663,86817,3
3664,86817,4
3665,86833,2
3666,86835,7
3667,86835,4
3668,86835,1
3669,86835,8
3670,86880,0
3671,86882,3
3672,86882,7
3673,86882,4
3674,86882,8
3675,86898,3
3676,86898,6
3677,86898,4
3678,86911,7
3679,86960,4
3680,87028,7
3681,87028,4
3682,87028,8
3683,87192,7
3684,87192,4
3685,87192,1
3686,87197,2
3687,87222,2
3688,87232,0
3689,87298,4
3690,87298,1
3691,87306,9
3692,87306,7
3693,87430,2
3694,87430,3
3695,87430,7
3696,87430,4
3697,87485,7
3698,87485,4
3699,87485,8
3700,87520,3
3701,87520,7
3702,87520,4
3703,87522,3
3704,87522,7
3705,87522,4
3706,87522,8
3707,87660,7
3708,87660,4
3709,87660,8
3710,87785,7
3711,87785,4
3712,87785,1
3713,87785,8
3714,87869,7
3715,87869,4
3716,87869,8
3717,87876,0
3718,88069,2
3719,88108,2
3720,88108,3
3721,88108,4
3722,88125,7
3723,88125,4
3724,88125,8
3725,88129,3
3726,88129,4
3727,88129,8
3728,88140,0
3729,88179,2
3730,88267,0
3731,88345,0
3732,88356,7
3733,88356,4
3734,88356,8
3735,88405,7
3736,88405,4
3737,88405,8
3738,88515,3
3739,88515,4
3740,88672,9
3741,88744,5
3742,88746,6
3743,88785,2
3744,88785,3
3745,88785,4
3746,88785,8
3747,88810,5
3748,88812,7
3749,88812,8
3750,88932,3
3751,88932,4
3752,89030,5
3753,89039,5
3754,89085,3
3755,89085,7
3756,89085,4
3757,89087,4
3758,89343,3
3759,89343,4
3760,89388,3
3761,89388,4
3762,89470,3
3763,89470,4
3764,89492,1
3765,89586,0
3766,89745,0
3767,89761,3
3768,89761,4
3769,89774,7
3770,89774,4
3771,89774,8
3772,89840,3
3773,89840,4
3774,89862,6
3775,89904,3
3776,89904,4
3777,90057,1
3778,90345,4
3779,90345,8
3780,90376,3
3781,90376,6
3782,90376,4
3783,90405,2
3784,90405,3
3785,90405,5
3786,90405,4
3787,90430,3
3788,90430,9
3789,90430,4
3790,90439,3
3791,90439,4
3792,90471,9
3793,90471,4
3794,90522,2
3795,90522,7
3796,90522,4
3797,90522,8
3798,90524,3
3799,90524,4
3800,90528,3
3801,90528,4
3802,90531,1
3803,90576,2
3804,90576,3
3805,90576,5
3806,90576,4
3807,90603,7
3808,90719,7
3809,90738,3
3810,90738,4
3811,90746,7
3812,90746,4
3813,90888,3
3814,90888,9
3815,90888,4
3816,90888,1
3817,90890,2
3818,91077,5
3819,91094,0
3820,91104,2
3821,91104,3
3822,91104,7
3823,91104,4
3824,91128,3
3825,91128,4
3826,91233,0
3827,91323,5
3828,91325,7
3829,91325,4
3830,91325,8
3831,91386,7
3832,91386,4
3833,91414,2
3834,91483,2
3835,91483,4
3836,91485,2
3837,91485,7
3838,91485,4
3839,91485,8
3840,91500,3
3841,91500,7
3842,91500,4
3843,91529,7
3844,91535,3
3845,91535,4
3846,91535,1
3847,91535,8
3848,91571,3
3849,91571,4
3850,91571,13
3851,91630,9
3852,91630,1
3853,91653,0
3854,91658,3
3855,91658,7
3856,91658,4
3857,91658,8
3858,91660,2
3859,91671,2
3860,91671,3
3861,91671,4
3862,91842,2
3863,91842,3
3864,91842,4
3865,91842,8
3866,91869,2
3867,91873,7
3868,91935,3
3869,91935,4
3870,91974,9
3871,91974,1
3872,91976,3
3873,91976,4
3874,91978,2
3875,91978,3
3876,91978,7
3877,92008,3
3878,92008,4
3879,92048,9
3880,92048,4
3881,92094,7
3882,92094,4
3883,92094,8
3884,92192,1
3885,92234,0
3886,92264,4
3887,92391,3
3888,92391,4
3889,92420,5
3890,92422,3
3891,92422,4
3892,92422,1
3893,92507,2
3894,92507,3
3895,92507,4
3896,92509,4
3897,92665,7
3898,92665,4
3899,92674,3
3900,92674,4
3901,92681,7
3902,92681,4
3903,92694,3
3904,92694,4
3905,92760,3
3906,92760,4
3907,92760,11
3908,92938,3
3909,92938,4
3910,93139,3
3911,93139,4
3912,93208,0
3913,93242,3
3914,93242,4
3915,93270,3
3916,93270,7
3917,93270,4
3918,93272,2
3919,93272,3
3920,93272,7
3921,93272,4
3922,93272,1
3923,93272,8
3924,93326,5
3925,93326,4
3926,93363,0
3927,93443,3
3928,93443,5
3929,93443,4
3930,93502,3
3931,93502,9
3932,93510,4
3933,93563,2
3934,93721,6
3935,93766,7
3936,93766,4
3937,93766,8
3938,93805,5
3939,93805,4
3940,93831,2
3941,93831,8
3942,93840,2
3943,93840,3
3944,93840,4
3945,93982,7
3946,93982,4
3947,93982,1
3948,93982,8
3949,94015,2
3950,94015,4
3951,94018,2
3952,94018,7
3953,94018,4
3954,94018,1
3955,94018,8
3956,94266,3
3957,94266,7
3958,94266,4
3959,94325,4
3960,94325,8
3961,94405,3
3962,94405,7
3963,94405,4
3964,94405,1
3965,94405,8
3966,94478,2
3967,94478,3
3968,94478,7
3969,94478,4
3970,94503,3
3971,94503,4
3972,94661,3
3973,94777,9
3974,94777,1
3975,94780,2
3976,94780,3
3977,94780,7
3978,94780,4
3979,94780,1
3980,94780,8
3981,94810,7
3982,94810,4
3983,94810,8
3984,94864,5
3985,94896,9
3986,94896,4
3987,94953,2
3988,94985,3
3989,94985,4
3990,95004,7
3991,95105,2
3992,95105,7
3993,95149,7
3994,95167,0
3995,95167,1
3996,95170,0
3997,95193,0
3998,95199,2
3999,95201,3
4000,95201,4
4001,95207,5
4002,95307,7
4003,95307,8
4004,95311,0
4005,95313,0
4006,95377,0
4007,95441,2
4008,95441,7
4009,95441,4
4010,95441,1
4011,95441,8
4012,95508,3
4013,95508,4
4014,95510,7
4015,95510,4
4016,95510,1
4017,95510,8
4018,95543,0
4019,95583,2
4020,95654,0
4021,95720,5
4022,95761,4
4023,95858,0
4024,95875,9
4025,95875,1
4026,96084,3
4027,96084,4
4028,96110,7
4029,96110,4
4030,96110,8
4031,96121,3
4032,96121,4
4033,96283,0
4034,96417,1
4035,96430,0
4036,96432,3
4037,96432,4
4038,96448,4
4039,96563,8
4040,96567,3
4041,96567,4
4042,96588,2
4043,96588,3
4044,96588,9
4045,96588,7
4046,96588,4
4047,96588,8
4048,96610,3
4049,96610,7
4050,96610,4
4051,96610,1
4052,96610,8
4053,96616,2
4054,96691,9
4055,96691,1
4056,96726,4
4057,96737,3
4058,96737,4
4059,96811,4
4060,96815,3
4061,96815,4
4062,96821,2
4063,96861,5
4064,96917,3
4065,96917,4
4066,96917,1
4067,97172,0
4068,97188,3
4069,97188,4
4070,97225,2
4071,97304,3
4072,97304,7
4073,97304,4
4074,97304,8
4075,97306,7
4076,97306,4
4077,97306,8
4078,97328,3
4079,97328,5
4080,97328,4
4081,97643,3
4082,97643,4
4083,97752,3
4084,97752,4
4085,97785,3
4086,97785,4
4087,97836,2
4088,97860,3
4089,97860,4
4090,97860,8
4091,97870,5
4092,97913,0
4093,97921,3
4094,97921,4
4095,97923,9
4096,97936,2
4097,97936,7
4098,97936,4
4099,97936,8
4100,98083,2
4101,98124,7
4102,98175,3
4103,98175,4
4104,98203,2
4105,98203,7
4106,98203,4
4107,98230,3
4108,98230,4
4109,98361,3
4110,98361,4
4111,98491,0
4112,98585,5
4113,98604,2
4114,98623,3
4115,98623,4
4116,98836,7
4117,98836,4
4118,98836,8
4119,98961,2
4120,98961,5
4121,98961,4
4122,99005,3
4123,99005,4
4124,99007,3
4125,99007,7
4126,99007,4
4127,99112,2
4128,99112,3
4129,99112,4
4130,99114,2
4131,99117,3
4132,99117,4
4133,99145,2
4134,99145,3
4135,99145,4
4136,99149,3
4137,99149,4
4138,99149,8
4139,99574,7
4140,99574,4
4141,99721,2
4142,99721,4
4143,99728,7
4144,99728,4
4145,99728,8
4146,99813,7
4147,99917,6
4148,100068,4
4149,100083,3
4150,100083,4
4151,100326,7
4152,100326,4
4153,100326,8
4154,100383,8
4155,100390,7
4156,100390,4
4157,100390,8
4158,100487,3
4159,100487,4
4160,100498,5
4161,100507,3
4162,100507,9
4163,100507,4
4164,100527,3
4165,100527,9
4166,100527,4
4167,100579,5
4168,100579,4
4169,100611,3
4170,100611,7
4171,100611,4
4172,100611,8
4173,100714,7
4174,100714,8
4175,100737,4
4176,100737,1
4177,100810,3
4178,100810,4
4179,101025,7
4180,101088,5
4181,101112,0
4182,101360,3
4183,101360,7
4184,101360,4
4185,101360,8
4186,101362,3
4187,101362,7
4188,101362,4
4189,101362,8
4190,101525,7
4191,101525,4
4192,101525,8
4193,101531,7
4194,101531,8
4195,101577,3
4196,101577,9
4197,101577,4
4198,101577,1
4199,101612,8
4200,101765,3
4201,101765,4
4202,101864,3
4203,101864,7
4204,101864,4
4205,101864,8
4206,101884,3
4207,101884,4
4208,101895,3
4209,101895,7
4210,101895,4
4211,102025,11
4212,102033,4
4213,102088,4
4214,102123,2
4215,102125,0
4216,102194,3
4217,102194,5
4218,102194,7
4219,102194,4
4220,102194,8
4221,102278,9
4222,102278,4
4223,102278,1
4224,102407,7
4225,102407,4
4226,102407,8
4227,102445,2
4228,102445,3
4229,102445,9
4230,102445,4
4231,102445,1
4232,102481,3
4233,102481,5
4234,102481,4
4235,102684,7
4236,102684,4
4237,102684,8
4238,102686,3
4239,102686,7
4240,102686,4
4241,102716,4
4242,102720,0
4243,102819,7
4244,102819,8
4245,102880,2
4246,102903,2
4247,102993,7
4248,102993,4
4249,102993,8
4250,103042,7
4251,103075,2
4252,103075,3
4253,103075,4
4254,103075,8
4255,103107,4
4256,103137,3
4257,103137,7
4258,103137,4
4259,103137,8
4260,103141,0
4261,103228,2
4262,103228,7
4263,103233,7
4264,103235,3
4265,103235,4
4266,103249,3
4267,103249,9
4268,103249,7
4269,103249,4
4270,103249,1
4271,103253,9
4272,103253,1
4273,103335,2
4274,103335,3
4275,103335,7
4276,103335,4
4277,103335,1
4278,103339,2
4279,103341,8
4280,103366,3
4281,103366,9
4282,103366,4
4283,103366,1
4284,103366,8
4285,103372,5
4286,103372,4
4287,103384,0
4288,103539,5
4289,103596,3
4290,103596,4
4291,103606,4
4292,103624,3
4293,103624,9
4294,103624,4
4295,103655,2
4296,103655,8
4297,103688,7
4298,103755,2
4299,103755,8
4300,103772,0
4301,103810,3
4302,103810,7
4303,103810,4
4304,103865,9
4305,103883,2
4306,103883,5
4307,103883,7
4308,103883,4
4309,103883,1
4310,103883,8
4311,103980,3
4312,103980,4
4313,104074,0
4314,104076,2
4315,104076,1
4316,104141,7
4317,104211,2
4318,104211,3
4319,104211,4
4320,104218,2
4321,104218,9
4322,104218,1
4323,104241,2
4324,104241,3
4325,104241,4
4326,104241,8
4327,104243,2
4328,104243,4
4329,104245,0
4330,104283,2
4331,104303,2
4332,104303,9
4333,104303,4
4334,104337,3
4335,104337,7
4336,104337,4
4337,104337,8
4338,104374,2
4339,104457,7
4340,104457,4
4341,104457,1
4342,104457,8
4343,104760,7
4344,104760,8
4345,104841,3
4346,104841,7
4347,104841,4
4348,104863,7
4349,104863,8
4350,104879,4
4351,104925,3
4352,104925,4
4353,104944,3
4354,104944,4
4355,105037,2
4356,105121,3
4357,105121,4
4358,105211,5
4359,105351,3
4360,105351,4
4361,105468,2
4362,105504,2
4363,105504,9
4364,105504,1
4365,105653,2
4366,105653,3
4367,105653,4
4368,105755,5
4369,105844,5
4370,105954,7
4371,105954,4
4372,106002,3
4373,106002,7
4374,106002,4
4375,106002,1
4376,106002,8
4377,106062,2
4378,106062,9
4379,106062,4
4380,106072,0
4381,106330,4
4382,106438,5
4383,106441,5
4384,106487,2
4385,106487,3
4386,106487,7
4387,106487,4
4388,106491,2
4389,106491,7
4390,106491,4
4391,106540,5
4392,106696,0
4393,106766,3
4394,106766,4
4395,106782,3
4396,106782,7
4397,106782,4
4398,106782,8
4399,106785,7
4400,106785,4
4401,106785,1
4402,106785,8
4403,106839,9
4404,106873,3
4405,106873,4
4406,106883,3
4407,106883,4
4408,106916,9
4409,106920,9
4410,107013,13
4411,107069,3
4412,107069,7
4413,107069,4
4414,107069,1
4415,107069,8
4416,107141,0
4417,107348,2
4418,107348,9
4419,107348,4
4420,107406,3
4421,107406,4
4422,107436,3
4423,107436,4
4424,107462,7
4425,107462,4
4426,107462,1
4427,107462,8
4428,107630,4
4429,107702,7
4430,107702,4
4431,107702,8
4432,107771,3
4433,107771,9
4434,107771,4
4435,108156,2
4436,108156,3
4437,108156,4
4438,108188,3
4439,108188,4
4440,108190,2
4441,108689,3
4442,108689,4
4443,108729,4
4444,108795,7
4445,108928,5
4446,108932,3
4447,108932,7
4448,108932,4
4449,109161,3
4450,109161,4
4451,109191,4
4452,109191,8
4453,109372,2
4454,109374,5
4455,109487,3
4456,109487,7
4457,109487,4
4458,109576,3
4459,109576,5
4460,109576,9
4461,109576,4
4462,109576,1
4463,109578,2
4464,109578,3
4465,109578,5
4466,109578,4
4467,109673,2
4468,109673,7
4469,109687,21
4470,109723,3
4471,109723,4
4472,109846,2
4473,109850,5
4474,109853,9
4475,109853,4
4476,109864,7
4477,109864,4
4478,109864,8
4479,109897,3
4480,109897,7
4481,109897,4
4482,109897,8
4483,110102,0
4484,110127,2
4485,110127,3
4486,110127,4
4487,110130,3
4488,110130,7
4489,110130,4
4490,110130,8
4491,110286,3
4492,110286,4
4493,110297,0
4494,110350,2
4495,110553,2
4496,110603,2
4497,110603,8
4498,110655,0
4499,110655,4
4500,110669,3
4501,110669,4
4502,110730,3
4503,110730,4
4504,110730,8
4505,110771,5
4506,110773,2
4507,110773,7
4508,110773,8
4509,110781,0
4510,110826,7
4511,110826,4
4512,110826,1
4513,110826,8
4514,110882,7
4515,110882,8
4516,111113,2
4517,111113,7
4518,111113,4
4519,111360,2
4520,111360,3
4521,111360,5
4522,111360,4
4523,111362,0
4524,111364,3
4525,111364,4
4526,111375,2
4527,111384,3
4528,111384,4
4529,111443,3
4530,111443,4
4531,111617,7
4532,111617,4
4533,111617,8
4534,111659,0
4535,111680,3
4536,111680,4
4537,111743,2
4538,111743,3
4539,111743,4
4540,111759,2
4541,111759,3
4542,111759,4
4543,111781,9
4544,111781,1
4545,111795,0
4546,112006,0
4547,112070,6
4548,112171,9
4549,112171,4
4550,112171,1
4551,112175,2
4552,112175,1
4553,112183,3
4554,112183,5
4555,112183,6
4556,112183,4
4557,112290,3
4558,112290,4
4559,112316,3
4560,112316,7
4561,112316,4
4562,112370,3
4563,112370,7
4564,112370,4
4565,112460,0
4566,112497,7
4567,112497,4
4568,112552,1
4569,112556,2
4570,112556,3
4571,112556,5
4572,112556,4
4573,112580,3
4574,112580,4
4575,112623,5
4576,112727,2
4577,112749,7
4578,112749,8
4579,112788,1
4580,112818,2
4581,112818,3
4582,112818,7
4583,112818,4
4584,112852,0
4585,112868,4
4586,112897,7
4587,112897,4
4588,112897,8
4589,112940,7
4590,112940,8
4591,113186,3
4592,113186,4
4593,113225,3
4594,113225,9
4595,113225,4
4596,113278,7
4597,113345,7
4598,113345,4
4599,113345,8
4600,113348,2
4601,113348,9
4602,113348,1
4603,113378,3
4604,113378,4
4605,113453,5
4606,113453,4
4607,113565,1
4608,113604,4
4609,113780,2
4610,113780,7
4611,113780,4
4612,113829,3
4613,113829,4
4614,113862,3
4615,114044,4
4616,114060,5
4617,114180,5
4618,114184,3
4619,114184,7
4620,114184,4
4621,114184,8
4622,114265,3
4623,114265,5
4624,114265,4
4625,114494,4
4626,114554,2
4627,114601,4
4628,114601,8
4629,114662,3
4630,114662,7
4631,114662,4
4632,114707,1
4633,114713,7
4634,114713,4
4635,114713,8
4636,114762,3
4637,114762,4
4638,114795,2
4639,114818,3
4640,114818,4
4641,114847,7
4642,114847,4
4643,114847,8
4644,114925,3
4645,114925,4
4646,114935,1
4647,115065,3
4648,115065,4
4649,115149,3
4650,115149,4
4651,115149,1
4652,115170,2
4653,115170,3
4654,115170,4
4655,115210,2
4656,115231,3
4657,115231,4
4658,115569,7
4659,115569,8
4660,115617,0
4661,115664,0
4662,115667,3
4663,115667,9
4664,115667,4
4665,115680,3
4666,115680,4
4667,115713,2
4668,115819,4
4669,115877,0
4670,115877,5
4671,116419,3
4672,116419,4
4673,116738,3
4674,116738,4
4675,116797,3
4676,116797,7
4677,116797,4
4678,116797,18
4679,116797,8
4680,116799,7
4681,116799,8
4682,116817,4
4683,116823,2
4684,116823,7
4685,116823,4
4686,116887,5
4687,116977,3
4688,116977,4
4689,116985,4
4690,117107,2
4691,117364,2
4692,117466,7
4693,117511,7
4694,117511,8
4695,117529,2
4696,117529,1
4697,117590,7
4698,117590,4
4699,117590,8
4700,117851,2
4701,117851,3
4702,117851,7
4703,117851,4
4704,117881,7
4705,117881,4
4706,117881,8
4707,117887,3
4708,117887,4
4709,117895,5
4710,118082,3
4711,118082,4
4712,118326,3
4713,118326,4
4714,118702,2
4715,118930,2
4716,118985,3
4717,118985,4
4718,118997,0
4719,119145,5
4720,119155,0
4721,119655,2
4722,120138,2
4723,120466,1
4724,120635,5
4725,120637,2
4726,120783,7
4727,120783,4
4728,120783,1
4729,120783,8
4730,120799,2
4731,120799,3
4732,120799,4
4733,121007,0
4734,121099,0
4735,121129,2
4736,121231,4
4737,121715,2
4738,121781,9
4739,121781,1
4740,122882,2
4741,122882,7
4742,122886,0
4743,122890,2
4744,122892,0
4745,122896,0
4746,122898,2
4747,122900,0
4748,122902,0
4749,122904,5
4750,122906,0
4751,122906,4
4752,122912,0
4753,122916,0
4754,122918,0
4755,122920,0
4756,122922,0
4757,122924,0
4758,122932,7
4759,122932,4
4760,122932,8
4761,123200,7
4762,123947,3
4763,123947,4
4764,125914,3
4765,125914,4
4766,125916,2
4767,125916,1
4768,125970,0
4769,125974,0
4770,126482,0
4771,126548,2
4772,126548,7
4773,126548,8
4774,126921,0
4775,127096,3
4776,127096,4
4777,127136,3
4778,127164,2
4779,127202,5
4780,127212,7
4781,127212,4
4782,127319,3
4783,127319,4
4784,127323,3
4785,127323,4
4786,128089,2
4787,128099,2
4788,128360,3
4789,128360,7
4790,128360,4
4791,128512,5
4792,128520,1
4793,128592,2
4794,128620,4
4795,128838,2
4796,128838,4
4797,128852,7
4798,128944,0
4799,128968,0
4800,129250,7
4801,129250,4
4802,129250,8
4803,129354,7
4804,129354,4
4805,129354,18
4806,129659,0
4807,129937,7
4808,130052,3
4809,130052,4
4810,130073,0
4811,130083,3
4812,130083,4
4813,130087,3
4814,130087,9
4815,130087,4
4816,130450,7
4817,130452,3
4818,130452,4
4819,130482,6
4820,130482,11
4821,130490,2
4822,130490,3
4823,130490,7
4824,130490,4
4825,130520,2
4826,130520,6
4827,130576,7
4828,130578,3
4829,130578,4
4830,130686,2
4831,131013,7
4832,131013,4
4833,131098,1
4834,131130,7
4835,131656,4
4836,131714,4
4837,131714,1
4838,131714,8
4839,131739,7
4840,131796,7
4841,131796,4
4842,131796,8
4843,131826,2
4844,131920,3
4845,131920,4
4846,132046,0
4847,132157,2
4848,132424,5
4849,132584,0
4850,132618,3
4851,132618,4
4852,132796,2
4853,132796,7
4854,132800,7
4855,132800,4
4856,132800,8
4857,133195,5
4858,133419,2
4859,133419,4
4860,133645,6
4861,133645,1
4862,133780,10
4863,133782,3
4864,133782,4
4865,133802,2
4866,134021,4
4867,134158,7
4868,134158,4
4869,134158,8
4870,134248,2
4871,134368,5
4872,134393,2
4873,134393,4
4874,134528,2
4875,134528,5
4876,134528,4
4877,134775,3
4878,134775,4
4879,134783,7
4880,134783,4
4881,134853,0
4882,135133,2
4883,135133,3
4884,135133,7
4885,135133,4
4886,135137,2
4887,135143,2
4888,135143,7
4889,135436,2
4890,135436,1
4891,135518,7
4892,135518,8
4893,135532,2
4894,135532,3
4895,135532,7
4896,135532,4
4897,135534,2
4898,135569,2
4899,135569,3
4900,135569,9
4901,135569,4
4902,135569,1
4903,135861,2
4904,135861,4
4905,135887,2
4906,135887,3
4907,135887,4
4908,136016,0
4909,136018,3
4910,136018,4
4911,136305,3
4912,136305,4
4913,136341,7
4914,136355,7
4915,136469,7
4916,136503,7
4917,136564,7
4918,136564,4
4919,136564,8
4920,136598,7
4921,136598,4
4922,136602,2
4923,136654,3
4924,136654,4
4925,136664,7
4926,136664,4
4927,136800,4
4928,136864,7
4929,137345,2
4930,137595,4
4931,137857,0
4932,137863,4
4933,138204,7
4934,138204,4
4935,138204,8
4936,138208,2
4937,138210,3
4938,138210,4
4939,138610,7
4940,138610,4
4941,139385,2
4942,139385,3
4943,139385,4
4944,139385,18
4945,139640,3
4946,139640,4
4947,139640,1
4948,139642,7
4949,139642,4
4950,139642,8
4951,139644,2
4952,139855,3
4953,139855,4
4954,139915,3
4955,139915,4
4956,140016,1
4957,140110,2
4958,140110,3
4959,140110,7
4960,140110,4
4961,140174,2
4962,140174,4
4963,140247,3
4964,140247,7
4965,140247,4
4966,140267,4
4967,140301,3
4968,140523,2
4969,140525,3
4970,140525,7
4971,140525,4
4972,140627,3
4973,140627,4
4974,140711,3
4975,140711,4
4976,140715,2
4977,140816,6
4978,140850,3
4979,140850,4
4980,140928,5
4981,140956,7
4982,141004,5
4983,141408,3
4984,141408,4
4985,141422,7
4986,141422,4
4987,141544,3
4988,141544,4
4989,141749,2
4990,141799,2
4991,141890,2
4992,142056,0
4993,142372,7
4994,142420,2
4995,142424,4
4996,142448,2
4997,142448,5
4998,142448,4
4999,142448,1
5000,142488,9
5001,142509,7
5002,142536,2
5003,142536,4
5004,142997,2
5005,143031,0
5006,143245,2
5007,143245,3
5008,143245,4
5009,143355,7
5010,143859,4
5011,144620,2
5012,144620,9
5013,144620,1
5014,144714,2
5015,144716,2
5016,145418,3
5017,145418,4
5018,145724,11
5019,145839,2
5020,145935,0
5021,146244,3
5022,146656,2
5023,148172,2
5024,148172,1
5025,148238,2
5026,148424,3
5027,148424,4
5028,148482,1
5029,148626,3
5030,148626,6
5031,148626,4
5032,148652,2
5033,148667,2
5034,148775,0
5035,148888,3
5036,148888,7
5037,148888,4
5038,149011,2
5039,149352,2
5040,149352,3
5041,149352,4
5042,149354,2
5043,149354,4
5044,149380,3
5045,149380,4
5046,149406,2
5047,149406,7
5048,149406,4
5049,149406,1
5050,149406,8
5051,149508,3
5052,149508,4
5053,149612,3
5054,149612,4
5055,151315,2
5056,151315,4
5057,151455,0
5058,151501,3
5059,151501,4
5060,151557,3
5061,151557,4
5062,151687,2
5063,151739,3
5064,151739,7
5065,151739,4
5066,151777,0
5067,152037,3
5068,152063,2
5069,152071,8
5070,152077,2
5071,152077,3
5072,152077,9
5073,152077,4
5074,152077,1
5075,152079,3
5076,152079,7
5077,152079,4
5078,152081,0
5079,152083,3
5080,152083,4
5081,152085,5
5082,152591,2
5083,155064,3
5084,155064,4
5085,155288,3
5086,155288,4
5087,155743,5
5088,155743,4
5089,155820,7
5090,156025,0
5091,156387,7
5092,156387,4
5093,156387,8
5094,156607,2
5095,156607,5
5096,156607,4
5097,156706,3
5098,156706,4
5099,156726,2
5100,157122,7
5101,157122,8
5102,157130,3
5103,157130,4
5104,157296,0
5105,157312,5
5106,157340,2
5107,157407,3
5108,157407,7
5109,157407,4
5110,157407,8
5111,157432,3
5112,157432,4
5113,157699,5
5114,157865,7
5115,157865,4
5116,157865,8
5117,158027,20
5118,158238,7
5119,158238,4
5120,158238,8
5121,158813,0
5122,158956,3
5123,159093,2
5124,159161,2
5125,159415,7
5126,159415,4
5127,159415,8
5128,159441,2
5129,159690,3
5130,159690,4
5131,159717,2
5132,159779,13
5133,159849,2
5134,159858,7
5135,160080,2
5136,160438,1
5137,160563,7
5138,160567,5
5139,160569,0
5140,160571,7
5141,160573,0
5142,160646,3
5143,160646,4
5144,160684,7
5145,160684,4
5146,160684,1
5147,160684,8
5148,160718,0
5149,160730,7
5150,160730,4
5151,160730,8
5152,160954,2
5153,160954,3
5154,160954,4
5155,160980,7
5156,161024,2
5157,161032,6
5158,161127,7
5159,161127,4
5160,161127,8
5161,161131,7
5162,161354,7
5163,161580,3
5164,161580,7
5165,161580,4
5166,161580,8
5167,161582,4
5168,161634,2
5169,161830,3
5170,161918,3
5171,161918,4
5172,161922,2
5173,162082,2
5174,162344,2
5175,162414,7
5176,162414,4
5177,162414,8
5178,162590,2
5179,162598,2
5180,163134,7
5181,163134,4
5182,163134,8
5183,163639,7
5184,163645,3
5185,163645,7
5186,163645,4
5187,163645,8
5188,163653,2
5189,163937,2
5190,163985,2
5191,164179,2
5192,164179,9
5193,164179,1
5194,164226,3
5195,164226,4
5196,164375,3
5197,164375,4
5198,164540,2
5199,164707,0
5200,164917,2
5201,165101,2
5202,165101,1
5203,165103,5
5204,165347,3
5205,165347,4
5206,165483,2
5207,165549,9
5208,165549,1
5209,165551,3
5210,165551,7
5211,165551,4
5212,165551,8
5213,165947,2
5214,166015,2
5215,166461,0
5216,166492,4
5217,166526,7
5218,166526,4
5219,166526,8
5220,166528,0
5221,166558,2
5222,166558,4
5223,166568,5
5224,166635,2
5225,166705,3
5226,166705,4
5227,166946,7
5228,167018,5
5229,167370,2
5230,167370,3
5231,167370,4
5232,167634,7
5233,167746,7
5234,167854,2
5235,168174,2
5236,168252,5
5237,168254,7
5238,168266,9
5239,168366,0
5240,168492,2
5241,168492,9
5242,168612,2
5243,168612,3
5244,168612,4
5245,168632,2
5246,168846,2
5247,169670,4
5248,169958,2
5249,169984,5
5250,169984,4
5251,169992,2
5252,170399,7
5253,170697,5
5254,170813,2
5255,170813,3
5256,170813,9
5257,170813,7
5258,170813,4
5259,170813,1
5260,170813,18
5261,170817,5
5262,170897,2
5263,170937,2
5264,170945,7
5265,170945,4
5266,170945,8
5267,170957,0
5268,170993,4
5269,171251,2
5270,171631,2
5271,171701,6
5272,171763,2
5273,171763,9
5274,171763,1
5275,171765,2
5276,171867,2
5277,172461,2
5278,173145,5
5279,173205,2
5280,173209,2
5281,173253,2
5282,173255,2
5283,173291,3
5284,173291,7
5285,173291,4
5286,173925,2
5287,173941,4
5288,174045,2
5289,174055,2
5290,174681,2
5291,174815,2
5292,174909,7
5293,174909,4
5294,174909,18
5295,174909,8
5296,175197,2
5297,175303,2
5298,175475,2
5299,175485,2
5300,175577,2
5301,175585,2
5302,175661,9
5303,175661,1
5304,176101,5
5305,176371,2
5306,176371,9
5307,176371,1
5308,176389,7
5309,176389,4
5310,176389,8
5311,176419,2
5312,176419,3
5313,176419,9
5314,176419,4
5315,176423,2
5316,176579,3
5317,176579,4
5318,176751,5
5319,176751,4
5320,176805,2
5321,176935,2
5322,177185,2
5323,177593,5
5324,177593,4
5325,177763,5
5326,177765,0
5327,178111,3
5328,178111,4
5329,178111,10
5330,178323,2
5331,178613,7
5332,179119,2
5333,179133,3
5334,179133,4
5335,179211,2
5336,179401,2
5337,179401,9
5338,179401,1
5339,179749,2
5340,179815,2
5341,179819,0
5342,179953,3
5343,179953,4
5344,180031,5
5345,180045,3
5346,180045,4
5347,180231,3
5348,180231,9
5349,180231,4
5350,180265,2
5351,180985,0
5352,181065,2
5353,181139,2
5354,181659,2
5355,182715,2
5356,182731,0
5357,182749,2
5358,182823,2
5359,183295,2
5360,183295,4
5361,183295,1
5362,183611,7
5363,183635,5
5364,183897,5
5365,183911,3
5366,183911,4
5367,183959,2
5368,184015,2
5369,184253,2
5370,184641,2
5371,184791,2
5372,184987,0
5373,184997,5
5374,185029,9
5375,185031,2
5376,185435,2
5377,186587,7
5378,187541,0
5379,187593,5
5380,187595,0
5381,188301,0
5382,188675,4
5383,188797,7
5384,188833,2
5385,189333,2
5386,189381,2
5387,189713,2
5388,190183,5
5389,190183,4
5390,191005,4
5391,193583,2
